\relax 
\providecommand\hyper@newdestlabel[2]{}
\providecommand\HyperFirstAtBeginDocument{\AtBeginDocument}
\HyperFirstAtBeginDocument{\ifx\hyper@anchor\@undefined
\global\let\oldcontentsline\contentsline
\gdef\contentsline#1#2#3#4{\oldcontentsline{#1}{#2}{#3}}
\global\let\oldnewlabel\newlabel
\gdef\newlabel#1#2{\newlabelxx{#1}#2}
\gdef\newlabelxx#1#2#3#4#5#6{\oldnewlabel{#1}{{#2}{#3}}}
\AtEndDocument{\ifx\hyper@anchor\@undefined
\let\contentsline\oldcontentsline
\let\newlabel\oldnewlabel
\fi}
\fi}
\global\let\hyper@last\relax 
\gdef\HyperFirstAtBeginDocument#1{#1}
\providecommand*\HyPL@Entry[1]{}
\providecommand\pbs@newkey[2]{}
\providecommand\pbs@seq@push@cx[2]{}
\providecommand\pbs@at@end@dvi@check{}
\pbs@at@end@dvi@check
\providecommand\@anim@newkey[2]{}
\pbs@newkey{pbs@last@page}{1}
\HyPL@Entry{0<</P(1)>>}
\@writefile{nav}{\headcommand {\slideentry {0}{0}{1}{1/1}{}{0}}}
\@writefile{nav}{\headcommand {\beamer@framepages {1}{1}}}
\pbs@newkey{pbs@last@page}{2}
\HyPL@Entry{1<</P(2)>>}
\@writefile{nav}{\headcommand {\slideentry {0}{0}{2}{2/2}{}{0}}}
\@writefile{nav}{\headcommand {\beamer@framepages {2}{2}}}
\pbs@newkey{pbs@last@page}{3}
\HyPL@Entry{2<</P(3)>>}
\@writefile{nav}{\headcommand {\slideentry {0}{0}{3}{3/3}{}{0}}}
\@writefile{nav}{\headcommand {\beamer@framepages {3}{3}}}
\pbs@newkey{pbs@last@page}{4}
\HyPL@Entry{3<</P(4)>>}
\pbs@newkey{pbs@last@page}{5}
\@writefile{nav}{\headcommand {\slideentry {0}{0}{4}{4/5}{}{0}}}
\@writefile{nav}{\headcommand {\beamer@framepages {4}{5}}}
\pbs@newkey{pbs@last@page}{6}
\HyPL@Entry{5<</P(5)>>}
\@writefile{nav}{\headcommand {\slideentry {0}{0}{5}{6/6}{}{0}}}
\@writefile{nav}{\headcommand {\beamer@framepages {6}{6}}}
\pbs@newkey{pbs@last@page}{7}
\HyPL@Entry{6<</P(6)>>}
\pbs@newkey{pbs@last@page}{8}
\pbs@newkey{pbs@last@page}{9}
\@writefile{nav}{\headcommand {\slideentry {0}{0}{6}{7/9}{}{0}}}
\@writefile{nav}{\headcommand {\beamer@framepages {7}{9}}}
\pbs@newkey{pbs@last@page}{10}
\HyPL@Entry{9<</P(7)>>}
\pbs@newkey{pbs@last@page}{11}
\pbs@newkey{pbs@last@page}{12}
\@writefile{nav}{\headcommand {\slideentry {0}{0}{7}{10/12}{}{0}}}
\@writefile{nav}{\headcommand {\beamer@framepages {10}{12}}}
\pbs@newkey{pbs@last@page}{13}
\HyPL@Entry{12<</P(8)>>}
\@writefile{nav}{\headcommand {\slideentry {0}{0}{8}{13/13}{}{0}}}
\@writefile{nav}{\headcommand {\beamer@framepages {13}{13}}}
\pbs@newkey{pbs@last@page}{14}
\HyPL@Entry{13<</P(9)>>}
\pbs@newkey{pbs@last@page}{15}
\pbs@newkey{pbs@last@page}{16}
\@writefile{nav}{\headcommand {\slideentry {0}{0}{9}{14/16}{}{0}}}
\@writefile{nav}{\headcommand {\beamer@framepages {14}{16}}}
\pbs@newkey{pbs@last@page}{17}
\HyPL@Entry{16<</P(10)>>}
\@writefile{nav}{\headcommand {\slideentry {0}{0}{10}{17/17}{}{0}}}
\@writefile{nav}{\headcommand {\beamer@framepages {17}{17}}}
\pbs@newkey{pbs@last@page}{18}
\HyPL@Entry{17<</P(11)>>}
\@writefile{nav}{\headcommand {\slideentry {0}{0}{11}{18/18}{}{0}}}
\@writefile{nav}{\headcommand {\beamer@framepages {18}{18}}}
\pbs@newkey{pbs@last@page}{19}
\HyPL@Entry{18<</P(12)>>}
\@writefile{nav}{\headcommand {\slideentry {0}{0}{12}{19/19}{}{0}}}
\@writefile{nav}{\headcommand {\beamer@framepages {19}{19}}}
\pbs@newkey{pbs@last@page}{20}
\HyPL@Entry{19<</P(13)>>}
\@writefile{nav}{\headcommand {\slideentry {0}{0}{13}{20/20}{}{0}}}
\@writefile{nav}{\headcommand {\beamer@framepages {20}{20}}}
\pbs@newkey{pbs@last@page}{21}
\HyPL@Entry{20<</P(14)>>}
\@writefile{nav}{\headcommand {\slideentry {0}{0}{14}{21/21}{}{0}}}
\@writefile{nav}{\headcommand {\beamer@framepages {21}{21}}}
\pbs@newkey{pbs@last@page}{22}
\HyPL@Entry{21<</P(15)>>}
\@writefile{nav}{\headcommand {\slideentry {0}{0}{15}{22/22}{}{0}}}
\@writefile{nav}{\headcommand {\beamer@framepages {22}{22}}}
\pbs@newkey{pbs@last@page}{23}
\HyPL@Entry{22<</P(16)>>}
\@writefile{nav}{\headcommand {\slideentry {0}{0}{16}{23/23}{}{0}}}
\@writefile{nav}{\headcommand {\beamer@framepages {23}{23}}}
\pbs@newkey{pbs@last@page}{24}
\HyPL@Entry{23<</P(17)>>}
\@writefile{nav}{\headcommand {\slideentry {0}{0}{17}{24/24}{}{0}}}
\@writefile{nav}{\headcommand {\beamer@framepages {24}{24}}}
\@writefile{nav}{\headcommand {\beamer@partpages {1}{24}}}
\@writefile{nav}{\headcommand {\beamer@subsectionpages {1}{24}}}
\@writefile{nav}{\headcommand {\beamer@sectionpages {1}{24}}}
\@writefile{nav}{\headcommand {\beamer@documentpages {24}}}
\@writefile{nav}{\headcommand {\gdef \inserttotalframenumber {17}}}
